{
    "0": {
        "id": 1,
        "nombre": "Cafe",
        "precio": 8500
    },
    "1": {
        "id": 2,
        "nombre": "Arroz",
        "precio": 2200
    },
    "2": {
        "id": 2,
        "nombre": "Aceite",
        "precio": 4000
    },
    "3": {
        "id": 2,
        "nombre": "Sal",
        "precio": 1000
    },
    "4": {
        "id": 2,
        "nombre": "Azucar",
        "precio": 2000
    }           
}